{
    "pagination": {
        "last_visible_page": 11,
        "has_next_page": true,
        "current_page": 1,
        "items": {
            "count": 1,
            "total": 11,
            "per_page": 1
        }
    },
    "data": [
        {
            "mal_id": 6347,
            "url": "",
            "images": {
                "jpg": {
                    "image_url": "",
                    "small_image_url": "https:\/\/.jpg",
                    "large_image_url": "https:\/\/.jpg"
                },
                "webp": {
                    "image_url": "https:\/\/.webp",
                    "small_image_url": "https:\/\/.webp",
                    "large_image_url": "https:\/\/.webp"
                }
            },
            "approved": true,
            "titles": [
                {
                    "type": "Default",
                    "title": "Baka to Test to Shoukanjuu"
                }
            ],
            "title": "",
            "score": 7.53,
            "rank": 1614,
            "popularity": 302,
            "favorites": 5528,
            "background": "",
            "season": "winter",
            "year": 2010,
            "cuisine": ""
        }
    ]
}